%YAML 1.1
%TAG !u! tag:unity3d.com,2011:
--- !u!74 &7400000
AnimationClip:
  m_ObjectHideFlags: 0
  m_CorrespondingSourceObject: {fileID: 0}
  m_PrefabInstance: {fileID: 0}
  m_PrefabAsset: {fileID: 0}
  m_Name: player_drink
  serializedVersion: 6
  m_Legacy: 0
  m_Compressed: 0
  m_UseHighQualityCurve: 1
  m_RotationCurves: []
  m_CompressedRotationCurves: []
  m_EulerCurves: []
  m_PositionCurves: []
  m_ScaleCurves: []
  m_FloatCurves: []
  m_PPtrCurves:
  - curve:
    - time: 0
      value: {fileID: 8688724063472875404, guid: 066e53dfe4576594fa1d112a0891f10d, type: 3}
    - time: 0.125
      value: {fileID: 8992545018162152901, guid: 066e53dfe4576594fa1d112a0891f10d, type: 3}
    - time: 0.25
      value: {fileID: -1618952145894471017, guid: 066e53dfe4576594fa1d112a0891f10d, type: 3}
    - time: 0.375
      value: {fileID: -5854416373311712474, guid: 066e53dfe4576594fa1d112a0891f10d, type: 3}
    - time: 0.5
      value: {fileID: 6721533051409720158, guid: 066e53dfe4576594fa1d112a0891f10d, type: 3}
    - time: 0.625
      value: {fileID: 2589738143758307443, guid: 066e53dfe4576594fa1d112a0891f10d, type: 3}
    - time: 0.75
      value: {fileID: 4628916406962600577, guid: 066e53dfe4576594fa1d112a0891f10d, type: 3}
    - time: 0.875
      value: {fileID: -2029769539032200119, guid: 066e53dfe4576594fa1d112a0891f10d, type: 3}
    - time: 1
      value: {fileID: 2102979358362524875, guid: 066e53dfe4576594fa1d112a0891f10d, type: 3}
    - time: 1.125
      value: {fileID: 5263032825398935168, guid: 066e53dfe4576594fa1d112a0891f10d, type: 3}
    - time: 1.25
      value: {fileID: -5049868671104513437, guid: 066e53dfe4576594fa1d112a0891f10d, type: 3}
    - time: 1.375
      value: {fileID: -6606126620102170988, guid: 066e53dfe4576594fa1d112a0891f10d, type: 3}
    - time: 1.5
      value: {fileID: 1789681404371309504, guid: 066e53dfe4576594fa1d112a0891f10d, type: 3}
    - time: 1.625
      value: {fileID: -5336653392821811845, guid: 066e53dfe4576594fa1d112a0891f10d, type: 3}
    - time: 1.75
      value: {fileID: -3066070522876147338, guid: 066e53dfe4576594fa1d112a0891f10d, type: 3}
    - time: 1.875
      value: {fileID: 3949248813621057876, guid: 066e53dfe4576594fa1d112a0891f10d, type: 3}
    attribute: m_Sprite
    path: 
    classID: 212
    script: {fileID: 0}
  m_SampleRate: 8
  m_WrapMode: 0
  m_Bounds:
    m_Center: {x: 0, y: 0, z: 0}
    m_Extent: {x: 0, y: 0, z: 0}
  m_ClipBindingConstant:
    genericBindings:
    - serializedVersion: 2
      path: 0
      attribute: 0
      script: {fileID: 0}
      typeID: 212
      customType: 23
      isPPtrCurve: 1
    pptrCurveMapping:
    - {fileID: 8688724063472875404, guid: 066e53dfe4576594fa1d112a0891f10d, type: 3}
    - {fileID: 8992545018162152901, guid: 066e53dfe4576594fa1d112a0891f10d, type: 3}
    - {fileID: -1618952145894471017, guid: 066e53dfe4576594fa1d112a0891f10d, type: 3}
    - {fileID: -5854416373311712474, guid: 066e53dfe4576594fa1d112a0891f10d, type: 3}
    - {fileID: 6721533051409720158, guid: 066e53dfe4576594fa1d112a0891f10d, type: 3}
    - {fileID: 2589738143758307443, guid: 066e53dfe4576594fa1d112a0891f10d, type: 3}
    - {fileID: 4628916406962600577, guid: 066e53dfe4576594fa1d112a0891f10d, type: 3}
    - {fileID: -2029769539032200119, guid: 066e53dfe4576594fa1d112a0891f10d, type: 3}
    - {fileID: 2102979358362524875, guid: 066e53dfe4576594fa1d112a0891f10d, type: 3}
    - {fileID: 5263032825398935168, guid: 066e53dfe4576594fa1d112a0891f10d, type: 3}
    - {fileID: -5049868671104513437, guid: 066e53dfe4576594fa1d112a0891f10d, type: 3}
    - {fileID: -6606126620102170988, guid: 066e53dfe4576594fa1d112a0891f10d, type: 3}
    - {fileID: 1789681404371309504, guid: 066e53dfe4576594fa1d112a0891f10d, type: 3}
    - {fileID: -5336653392821811845, guid: 066e53dfe4576594fa1d112a0891f10d, type: 3}
    - {fileID: -3066070522876147338, guid: 066e53dfe4576594fa1d112a0891f10d, type: 3}
    - {fileID: 3949248813621057876, guid: 066e53dfe4576594fa1d112a0891f10d, type: 3}
  m_AnimationClipSettings:
    serializedVersion: 2
    m_AdditiveReferencePoseClip: {fileID: 0}
    m_AdditiveReferencePoseTime: 0
    m_StartTime: 0
    m_StopTime: 2
    m_OrientationOffsetY: 0
    m_Level: 0
    m_CycleOffset: 0
    m_HasAdditiveReferencePose: 0
    m_LoopTime: 1
    m_LoopBlend: 0
    m_LoopBlendOrientation: 0
    m_LoopBlendPositionY: 0
    m_LoopBlendPositionXZ: 0
    m_KeepOriginalOrientation: 0
    m_KeepOriginalPositionY: 1
    m_KeepOriginalPositionXZ: 0
    m_HeightFromFeet: 0
    m_Mirror: 0
  m_EditorCurves: []
  m_EulerEditorCurves: []
  m_HasGenericRootTransform: 0
  m_HasMotionFloatCurves: 0
  m_Events: []
